{
  "results": [
    {
      "popularity": 593.21,
      "vote_count": 188,
      "video": false,
      "poster_path": "\/uGhQ2ZGBpzCj6wC5jUrybsZuPTI.jpg",
      "id": 539885,
      "adult": false,
      "backdrop_path": "\/ekkuqt9Q2ad1F7xq2ZONP0oq36P.jpg",
      "original_language": "en",
      "original_title": "Ava",
      "genre_ids": [
        28,
        80,
        18,
        53
      ],
      "title": "Ava",
      "vote_average": 6.3,
      "overview": "A black ops assassin is forced to fight for her own survival after a job goes dangerously wrong.",
      "release_date": "2020-08-06"
    },
    {
      "popularity": 500.168,
      "vote_count": 74,
      "video": false,
      "poster_path": "\/ijcykNO87JLCgxUltTFqHwlK2yT.jpg",
      "id": 613504,
      "adult": false,
      "backdrop_path": "\/dZJJDmiwp0W1NE74SY5WV00v0Ec.jpg",
      "original_language": "en",
      "original_title": "After We Collided",
      "genre_ids": [
        18,
        10749
      ],
      "title": "After We Collided",
      "vote_average": 7.5,
      "overview": "Tessa finds herself struggling with her complicated relationship with Hardin; she faces a dilemma that could change their lives forever.",
      "release_date": "2020-09-02"
    },
    {
      "popularity": 445.375,
      "vote_count": 95,
      "video": false,
      "poster_path": "\/4V2nTPfeB59TcqJcUfQ9ziTi7VN.jpg",
      "id": 501979,
      "adult": false,
      "backdrop_path": "\/oazPqs1z78LcIOFslbKtJLGlueo.jpg",
      "original_language": "en",
      "original_title": "Bill & Ted Face the Music",
      "genre_ids": [
        12,
        35,
        878
      ],
      "title": "Bill & Ted Face the Music",
      "vote_average": 6.5,
      "overview": "Yet to fulfill their rock and roll destiny, the now middle-aged best friends Bill and Ted set out on a new adventure when a visitor from the future warns them that only their song can save life as we know it. Along the way, they are helped by their daughters, a new batch of historical figures and a few music legends—to seek the song that will set their world right and bring harmony to the universe.",
      "release_date": "2020-08-27"
    },
    {
      "popularity": 307.376,
      "vote_count": 104,
      "video": false,
      "poster_path": "\/aKx1ARwG55zZ0GpRvU2WrGrCG9o.jpg",
      "id": 337401,
      "adult": false,
      "backdrop_path": "\/xl5oCFLVMo4d4Pgxvrf8Jmc2IlA.jpg",
      "original_language": "en",
      "original_title": "Mulan",
      "genre_ids": [
        28,
        18,
        14,
        10752
      ],
      "title": "Mulan",
      "vote_average": 7.7,
      "overview": "When the Emperor of China issues a decree that one man per family must serve in the Imperial Chinese Army to defend the country from Huns, Hua Mulan, the eldest daughter of an honored warrior, steps in to take the place of her ailing father. She is spirited, determined and quick on her feet. Disguised as a man by the name of Hua Jun, she is tested every step of the way and must harness her innermost strength and embrace her true potential.",
      "release_date": "2020-09-04"
    },
    {
      "popularity": 290.066,
      "vote_count": 1026,
      "video": false,
      "poster_path": "\/k68nPLbIST6NP96JmTxmZijEvCA.jpg",
      "id": 577922,
      "adult": false,
      "backdrop_path": "\/wzJRB4MKi3yK138bJyuL9nx47y6.jpg",
      "original_language": "en",
      "original_title": "Tenet",
      "genre_ids": [
        28,
        878,
        53
      ],
      "title": "Tenet",
      "vote_average": 7.5,
      "overview": "Armed with only one word - Tenet - and fighting for the survival of the entire world, the Protagonist journeys through a twilight world of international espionage on a mission that will unfold in something beyond real time.",
      "release_date": "2020-08-22"
    },
    {
      "popularity": 226.101,
      "vote_count": 116,
      "video": false,
      "poster_path": "\/xZNw9xxtwbEf25NYoz52KdbXHPM.jpg",
      "id": 340102,
      "adult": false,
      "backdrop_path": "\/eCIvqa3QVCx6H09bdeOS8Al2Sqy.jpg",
      "original_language": "en",
      "original_title": "The New Mutants",
      "genre_ids": [
        28,
        12,
        27,
        878
      ],
      "title": "The New Mutants",
      "vote_average": 6,
      "overview": "Five young mutants, just discovering their abilities while held in a secret facility against their will, fight to escape their past sins and save themselves.",
      "release_date": "2020-08-26"
    },
    {
      "popularity": 165.684,
      "vote_count": 320,
      "video": false,
      "poster_path": "\/hPkqY2EMqWUnFEoedukilIUieVG.jpg",
      "id": 531876,
      "adult": false,
      "backdrop_path": "\/n1RohH2VoK1CdVI2fXvcP19dSlm.jpg",
      "original_language": "en",
      "original_title": "The Outpost",
      "genre_ids": [
        28,
        18,
        36,
        10752
      ],
      "title": "The Outpost",
      "vote_average": 6.7,
      "overview": "A small unit of U.S. soldiers, alone at the remote Combat Outpost Keating, located deep in the valley of three mountains in Afghanistan, battles to defend against an overwhelming force of Taliban fighters in a coordinated attack. The Battle of Kamdesh, as it was known, was the bloodiest American engagement of the Afghan War in 2009 and Bravo Troop 3-61 CAV became one of the most decorated units of the 19-year conflict.",
      "release_date": "2020-06-24"
    },
    {
      "popularity": 163.583,
      "vote_count": 652,
      "video": false,
      "poster_path": "\/4w1ItwCJCTtSi9nPfJC1vU6NIVg.jpg",
      "id": 413518,
      "adult": false,
      "backdrop_path": "\/AdqOBPw4PdtzOcfEuQuZ8MNeTKb.jpg",
      "original_language": "it",
      "original_title": "Pinocchio",
      "genre_ids": [
        12,
        18,
        14,
        10751
      ],
      "title": "Pinocchio",
      "vote_average": 6.9,
      "overview": "In this live-action adaptation of the beloved fairytale, old woodcarver Geppetto fashions a wooden puppet, Pinocchio, who magically comes to life. Pinocchio longs for adventure and is easily led astray, encountering magical beasts, fantastical spectacles, while making friends and foes along his journey. However, his dream is to become a real boy, which can only come true if he finally changes his ways.",
      "release_date": "2019-12-19"
    },
    {
      "popularity": 178.905,
      "vote_count": 1079,
      "video": false,
      "poster_path": "\/7W0G3YECgDAfnuiHG91r8WqgIOe.jpg",
      "id": 446893,
      "adult": false,
      "backdrop_path": "\/qsxhnirlp7y4Ae9bd11oYJSX59j.jpg",
      "original_language": "en",
      "original_title": "Trolls World Tour",
      "genre_ids": [
        12,
        16,
        35,
        14,
        10402,
        10751
      ],
      "title": "Trolls World Tour",
      "vote_average": 7.6,
      "overview": "Queen Poppy and Branch make a surprising discovery — there are other Troll worlds beyond their own, and their distinct differences create big clashes between these various tribes. When a mysterious threat puts all of the Trolls across the land in danger, Poppy, Branch, and their band of friends must embark on an epic quest to create harmony among the feuding Trolls to unite them against certain doom.",
      "release_date": "2020-03-12"
    },
    {
      "popularity": 109.816,
      "vote_count": 108,
      "video": false,
      "poster_path": "\/zQFjMmE3K9AX5QrBL1SXIxYQ9jz.jpg",
      "id": 579583,
      "adult": false,
      "backdrop_path": "\/5rwcd24GGltKiqdPT4G2dmchLr9.jpg",
      "original_language": "en",
      "original_title": "The King of Staten Island",
      "genre_ids": [
        35,
        18
      ],
      "title": "The King of Staten Island",
      "vote_average": 6.7,
      "overview": "Scott has been a case of arrested development ever since his firefighter father died when he was seven. He’s now reached his mid-20s having achieved little, chasing a dream of becoming a tattoo artist that seems far out of reach. As his ambitious younger sister heads off to college, Scott is still living with his exhausted ER nurse mother and spends his days smoking weed, hanging with the guys — Oscar, Igor and Richie — and secretly hooking up with his childhood friend Kelsey. But when his mother starts dating a loudmouth firefighter named Ray, it sets off a chain of events that will force Scott to grapple with his grief and take his first tentative steps toward moving forward in life.",
      "release_date": "2020-07-22"
    },
    {
      "popularity": 101.651,
      "vote_count": 1328,
      "video": false,
      "poster_path": "\/wxPhn4ef1EAo5njxwBkAEVrlJJG.jpg",
      "id": 514847,
      "adult": false,
      "backdrop_path": "\/qfQ78ZKiouoM2yhAnfNblp9ijQE.jpg",
      "original_language": "en",
      "original_title": "The Hunt",
      "genre_ids": [
        28,
        27,
        53
      ],
      "title": "The Hunt",
      "vote_average": 6.6,
      "overview": "Twelve strangers wake up in a clearing. They don't know where they are—or how they got there. In the shadow of a dark internet conspiracy theory, ruthless elitists gather at a remote location to hunt humans for sport. But their master plan is about to be derailed when one of the hunted turns the tables on her pursuers.",
      "release_date": "2020-03-11"
    },
    {
      "popularity": 74.367,
      "vote_count": 20,
      "video": false,
      "poster_path": "\/cDbOrc2RtIA37nLm0CzVpFLrdaG.jpg",
      "id": 513584,
      "adult": false,
      "backdrop_path": "\/qEo36RiT8w4hMFlf9KohOSuX3HZ.jpg",
      "original_language": "en",
      "original_title": "Think Like a Dog",
      "genre_ids": [
        35,
        18,
        10751
      ],
      "title": "Think Like a Dog",
      "vote_average": 6.3,
      "overview": "A 12-year-old tech prodigy whose science experiment goes awry and he forges a telepathic connection with his best friend, his dog. The duo join forces and use their unique perspectives on life to comically overcome complications of family and school.",
      "release_date": "2020-08-06"
    },
    {
      "popularity": 58.916,
      "vote_count": 71,
      "video": false,
      "poster_path": "\/sA154deR0X51EcR2lm2FfDczryg.jpg",
      "id": 524047,
      "adult": false,
      "backdrop_path": "\/3vfZL9zerxkSR5f8LGwyRFzkbdS.jpg",
      "original_language": "en",
      "original_title": "Greenland",
      "genre_ids": [
        28,
        878,
        53
      ],
      "title": "Greenland",
      "vote_average": 6.1,
      "overview": "A detached married couple must get their son and themselves to safety after being randomly selected to enter an underground bunker, as a massive object from space threatens to destroy the world in less than 48 hours.",
      "release_date": "2020-07-29"
    },
    {
      "popularity": 58.905,
      "vote_count": 46,
      "video": false,
      "poster_path": "\/h4cPVVNPZUHVeoF6dH2grBvSEKs.jpg",
      "id": 507441,
      "adult": false,
      "backdrop_path": "\/kz6JNUDhMx78QuZlztp0UHmz5xg.jpg",
      "original_language": "en",
      "original_title": "Sea Fever",
      "genre_ids": [
        27,
        878,
        53
      ],
      "title": "Sea Fever",
      "vote_average": 5.8,
      "overview": "The crew of a West of Ireland trawler—marooned at sea—struggle for their lives against a growing parasite in their water supply.",
      "release_date": "2020-06-12"
    },
    {
      "popularity": 62.643,
      "vote_count": 21,
      "video": false,
      "poster_path": "\/nphsStbtAuJ2IaXtCvDXDwMUF5N.jpg",
      "id": 399363,
      "adult": false,
      "backdrop_path": "\/pPNMk2TQVIhNn2IFHVJo1jcXQmR.jpg",
      "original_language": "en",
      "original_title": "Wendy",
      "genre_ids": [
        12,
        14,
        10751
      ],
      "title": "Wendy",
      "vote_average": 5.7,
      "overview": "A re-imagining of \"Peter Pan\" from the point of view of Wendy Darling, who finds herself lost on a mysterious island where aging and time have come unglued. She must fight to save her family, her freedom and the joyous spirit of youth.",
      "release_date": "2020-02-28"
    },
    {
      "popularity": 50.648,
      "vote_count": 602,
      "video": false,
      "poster_path": "\/myf3qzpeN0JbuFRPwSpJcz7rmAT.jpg",
      "id": 458305,
      "adult": false,
      "backdrop_path": "\/jZ4YdDCnfK4cO13do9J4JaT8d2O.jpg",
      "original_language": "en",
      "original_title": "Vivarium",
      "genre_ids": [
        27,
        878,
        53
      ],
      "title": "Vivarium",
      "vote_average": 6,
      "overview": "A young woman and her fiancé are in search of the perfect starter home. After following a mysterious real estate agent to a new housing development, the couple finds themselves trapped in a maze of identical houses and forced to raise an otherworldly child.",
      "release_date": "2019-09-07"
    },
    {
      "popularity": 42.909,
      "vote_count": 586,
      "video": false,
      "poster_path": "\/cVo7lylXAUDGuvDZBUYaP8Zjbku.jpg",
      "id": 429471,
      "adult": false,
      "backdrop_path": "\/6IZ84KFhNpy6htsJmwFVuK30pyp.jpg",
      "original_language": "en",
      "original_title": "Captive State",
      "genre_ids": [
        878
      ],
      "title": "Captive State",
      "vote_average": 5.6,
      "overview": "Nearly a decade after occupation by an extraterrestrial force, the lives of a Chicago neighborhood on both sides of the conflict are explored. In a working-class Chicago neighborhood occupied by an alien force for nine years, increased surveillance and the restriction of civil rights have given rise to an authoritarian system -- and dissent among the populace.",
      "release_date": "2019-03-15"
    },
    {
      "popularity": 46.498,
      "vote_count": 21,
      "video": false,
      "poster_path": "\/bf0iXmSvZdJitc3kCJQpba26RoO.jpg",
      "id": 425001,
      "adult": false,
      "backdrop_path": "\/tjcx6sA2dcUBEUpjwXne69njia3.jpg",
      "original_language": "en",
      "original_title": "The War with Grandpa",
      "genre_ids": [
        35,
        10751
      ],
      "title": "The War with Grandpa",
      "vote_average": 5.8,
      "overview": "Sixth-grader Peter is pretty much your average kid—he likes gaming, hanging with his friends and his beloved pair of Air Jordans. But when his recently widowed grandfather Ed  moves in with Peter’s family, the boy is forced to give up his most prized possession of all, his bedroom. Unwilling to let such an injustice stand, Peter devises a series of increasingly elaborate pranks to drive out the interloper, but Grandpa Ed won’t go without a fight.",
      "release_date": "2020-01-31"
    },
    {
      "popularity": 48.494,
      "vote_count": 131,
      "video": false,
      "poster_path": "\/jOY3dDCzjygXzumYeJ9UIyETzuj.jpg",
      "id": 550738,
      "adult": false,
      "backdrop_path": "\/tV15mHVJkFXlJ0P8AM7cckuuo6i.jpg",
      "original_language": "fr",
      "original_title": "Spycies",
      "genre_ids": [
        28,
        12,
        16,
        35,
        10751
      ],
      "title": "Spycies",
      "vote_average": 8,
      "overview": "Vladimir and Hector, two secret agents opposed in every way, are trying to recover a top secret material stolen by unknown intruders.",
      "release_date": "2020-01-11"
    },
    {
      "popularity": 52.842,
      "vote_count": 334,
      "video": false,
      "poster_path": "\/DpFMAjyE6EmIknSduykVc1pB1J.jpg",
      "id": 639798,
      "adult": false,
      "backdrop_path": "\/59b4PaPaI52LJJRNRtG3ALyUvJU.jpg",
      "original_language": "es",
      "original_title": "Malasaña 32",
      "genre_ids": [
        27
      ],
      "title": "32 Malasana Street",
      "vote_average": 6.8,
      "overview": "Inspired by real events, the story centers around a family in the 70s who settles in the Madrid neighborhood of Malasaña where their new house will become the worst of their nightmares.",
      "release_date": "2020-01-17"
    }
  ],
  "page": 1,
  "total_results": 228,
  "dates": {
    "maximum": "2020-09-28",
    "minimum": "2020-09-11"
  },
  "total_pages": 12
}